{
	"pools": [
		{
			"rolls":1,
			"entries":[ 
				{
					"type":"item",
					"name":"minecraft:elytra",
					"weight":1
				}
			]
		},
		{
			"rolls":1,
			"entries": [
				{
					"type":"item",
					"name":"minecraft:dragon_egg",
					"weight":1,
				}
			]
		}
	]
}